
{
  "header": {
    "reportVersion": 1,
    "event": "Allocation failed - JavaScript heap out of memory",
    "trigger": "FatalError",
    "filename": "report.20200608.202302.1675.0.001.json",
    "dumpEventTime": "2020-06-08T20:23:02Z",
    "dumpEventTimeStamp": "1591636982002",
    "processId": 1675,
    "cwd": "/Users/vitaliy.ts/projects/develop/react-native/self-posts",
    "commandLine": [
      "/Users/vitaliy.ts/.nvm/versions/node/v12.13.0/bin/node",
      "/Users/vitaliy.ts/projects/develop/react-native/self-posts/node_modules/react-native/local-cli/cli.js",
      "start",
      "--port",
      "19001",
      "--customLogReporterPath",
      "/Users/vitaliy.ts/.nvm/versions/node/v12.13.0/lib/node_modules/expo-cli/node_modules/@expo/xdl/build/reporter/index.js",
      "--sourceExts",
      "expo.ts,expo.tsx,expo.js,expo.jsx,ts,tsx,js,jsx,json,wasm",
      "--assetPlugins",
      "/Users/vitaliy.ts/projects/develop/react-native/self-posts/node_modules/expo-asset/tools/hashAssetFiles.js"
    ],
    "nodejsVersion": "v12.13.0",
    "wordSize": 64,
    "arch": "x64",
    "platform": "darwin",
    "componentVersions": {
      "node": "12.13.0",
      "v8": "7.7.299.13-node.12",
      "uv": "1.32.0",
      "zlib": "1.2.11",
      "brotli": "1.0.7",
      "ares": "1.15.0",
      "modules": "72",
      "nghttp2": "1.39.2",
      "napi": "5",
      "llhttp": "1.1.4",
      "http_parser": "2.8.0",
      "openssl": "1.1.1d",
      "cldr": "35.1",
      "icu": "64.2",
      "tz": "2019a",
      "unicode": "12.1"
    },
    "release": {
      "name": "node",
      "lts": "Erbium",
      "headersUrl": "https://nodejs.org/download/release/v12.13.0/node-v12.13.0-headers.tar.gz",
      "sourceUrl": "https://nodejs.org/download/release/v12.13.0/node-v12.13.0.tar.gz"
    },
    "osName": "Darwin",
    "osRelease": "19.5.0",
    "osVersion": "Darwin Kernel Version 19.5.0: Tue May 26 20:41:44 PDT 2020; root:xnu-6153.121.2~2/RELEASE_X86_64",
    "osMachine": "x86_64",
    "cpus": [
      {
        "model": "Intel(R) Core(TM) i7-8750H CPU @ 2.20GHz",
        "speed": 2200,
        "user": 3893850,
        "nice": 0,
        "sys": 3476140,
        "idle": 17428530,
        "irq": 0
      },
      {
        "model": "Intel(R) Core(TM) i7-8750H CPU @ 2.20GHz",
        "speed": 2200,
        "user": 565950,
        "nice": 0,
        "sys": 274490,
        "idle": 23941390,
        "irq": 0
      },
      {
        "model": "Intel(R) Core(TM) i7-8750H CPU @ 2.20GHz",
        "speed": 2200,
        "user": 3469200,
        "nice": 0,
        "sys": 2651080,
        "idle": 18661750,
        "irq": 0
      },
      {
        "model": "Intel(R) Core(TM) i7-8750H CPU @ 2.20GHz",
        "speed": 2200,
        "user": 599250,
        "nice": 0,
        "sys": 196930,
        "idle": 23985640,
        "irq": 0
      },
      {
        "model": "Intel(R) Core(TM) i7-8750H CPU @ 2.20GHz",
        "speed": 2200,
        "user": 3106390,
        "nice": 0,
        "sys": 2169400,
        "idle": 19506210,
        "irq": 0
      },
      {
        "model": "Intel(R) Core(TM) i7-8750H CPU @ 2.20GHz",
        "speed": 2200,
        "user": 567410,
        "nice": 0,
        "sys": 148590,
        "idle": 24065800,
        "irq": 0
      },
      {
        "model": "Intel(R) Core(TM) i7-8750H CPU @ 2.20GHz",
        "speed": 2200,
        "user": 2692490,
        "nice": 0,
        "sys": 1673070,
        "idle": 20416420,
        "irq": 0
      },
      {
        "model": "Intel(R) Core(TM) i7-8750H CPU @ 2.20GHz",
        "speed": 2200,
        "user": 618780,
        "nice": 0,
        "sys": 125510,
        "idle": 24037480,
        "irq": 0
      },
      {
        "model": "Intel(R) Core(TM) i7-8750H CPU @ 2.20GHz",
        "speed": 2200,
        "user": 2537190,
        "nice": 0,
        "sys": 1647210,
        "idle": 20597540,
        "irq": 0
      },
      {
        "model": "Intel(R) Core(TM) i7-8750H CPU @ 2.20GHz",
        "speed": 2200,
        "user": 590240,
        "nice": 0,
        "sys": 110270,
        "idle": 24081240,
        "irq": 0
      },
      {
        "model": "Intel(R) Core(TM) i7-8750H CPU @ 2.20GHz",
        "speed": 2200,
        "user": 2014900,
        "nice": 0,
        "sys": 836890,
        "idle": 21930130,
        "irq": 0
      },
      {
        "model": "Intel(R) Core(TM) i7-8750H CPU @ 2.20GHz",
        "speed": 2200,
        "user": 580260,
        "nice": 0,
        "sys": 96550,
        "idle": 24104920,
        "irq": 0
      }
    ],
    "networkInterfaces": [
      {
        "name": "lo0",
        "internal": true,
        "mac": "00:00:00:00:00:00",
        "address": "127.0.0.1",
        "netmask": "255.0.0.0",
        "family": "IPv4"
      },
      {
        "name": "lo0",
        "internal": true,
        "mac": "00:00:00:00:00:00",
        "address": "::1",
        "netmask": "ffff:ffff:ffff:ffff:ffff:ffff:ffff:ffff",
        "family": "IPv6",
        "scopeid": 0
      },
      {
        "name": "lo0",
        "internal": true,
        "mac": "00:00:00:00:00:00",
        "address": "fe80::1",
        "netmask": "ffff:ffff:ffff:ffff::",
        "family": "IPv6",
        "scopeid": 1
      },
      {
        "name": "lo0",
        "internal": true,
        "mac": "00:00:00:00:00:00",
        "address": "127.94.0.2",
        "netmask": "255.0.0.0",
        "family": "IPv4"
      },
      {
        "name": "lo0",
        "internal": true,
        "mac": "00:00:00:00:00:00",
        "address": "127.94.0.1",
        "netmask": "255.0.0.0",
        "family": "IPv4"
      },
      {
        "name": "en5",
        "internal": false,
        "mac": "ac:de:48:00:11:22",
        "address": "fe80::aede:48ff:fe00:1122",
        "netmask": "ffff:ffff:ffff:ffff::",
        "family": "IPv6",
        "scopeid": 4
      },
      {
        "name": "en0",
        "internal": false,
        "mac": "38:f9:d3:19:7f:98",
        "address": "fe80::8a7:d944:2c79:bf17",
        "netmask": "ffff:ffff:ffff:ffff::",
        "family": "IPv6",
        "scopeid": 6
      },
      {
        "name": "en0",
        "internal": false,
        "mac": "38:f9:d3:19:7f:98",
        "address": "192.168.0.128",
        "netmask": "255.255.255.0",
        "family": "IPv4"
      },
      {
        "name": "awdl0",
        "internal": false,
        "mac": "32:dd:3b:29:42:92",
        "address": "fe80::30dd:3bff:fe29:4292",
        "netmask": "ffff:ffff:ffff:ffff::",
        "family": "IPv6",
        "scopeid": 8
      },
      {
        "name": "llw0",
        "internal": false,
        "mac": "32:dd:3b:29:42:92",
        "address": "fe80::30dd:3bff:fe29:4292",
        "netmask": "ffff:ffff:ffff:ffff::",
        "family": "IPv6",
        "scopeid": 9
      },
      {
        "name": "utun0",
        "internal": false,
        "mac": "00:00:00:00:00:00",
        "address": "fe80::36ef:a807:30c6:313f",
        "netmask": "ffff:ffff:ffff:ffff::",
        "family": "IPv6",
        "scopeid": 15
      },
      {
        "name": "utun1",
        "internal": false,
        "mac": "00:00:00:00:00:00",
        "address": "fe80::e189:83d8:b91c:eef3",
        "netmask": "ffff:ffff:ffff:ffff::",
        "family": "IPv6",
        "scopeid": 16
      }
    ],
    "host": "eadmins-vitaliyts.local"
  },
  "javascriptStack": {
    "message": "No stack.",
    "stack": [
      "Unavailable."
    ]
  },
  "nativeStack": [
    {
      "pc": "0x000000010014da5c",
      "symbol": "report::TriggerNodeReport(v8::Isolate*, node::Environment*, char const*, char const*, std::__1::basic_string<char, std::__1::char_traits<char>, std::__1::allocator<char> > const&, v8::Local<v8::String>) [/Users/vitaliy.ts/.nvm/versions/node/v12.13.0/bin/node]"
    },
    {
      "pc": "0x000000010007e8a3",
      "symbol": "node::OnFatalError(char const*, char const*) [/Users/vitaliy.ts/.nvm/versions/node/v12.13.0/bin/node]"
    },
    {
      "pc": "0x0000000100176267",
      "symbol": "v8::Utils::ReportOOMFailure(v8::internal::Isolate*, char const*, bool) [/Users/vitaliy.ts/.nvm/versions/node/v12.13.0/bin/node]"
    },
    {
      "pc": "0x0000000100176203",
      "symbol": "v8::internal::V8::FatalProcessOutOfMemory(v8::internal::Isolate*, char const*, bool) [/Users/vitaliy.ts/.nvm/versions/node/v12.13.0/bin/node]"
    },
    {
      "pc": "0x00000001002fa2b5",
      "symbol": "v8::internal::Heap::FatalProcessOutOfMemory(char const*) [/Users/vitaliy.ts/.nvm/versions/node/v12.13.0/bin/node]"
    },
    {
      "pc": "0x00000001002fb984",
      "symbol": "v8::internal::Heap::RecomputeLimits(v8::internal::GarbageCollector) [/Users/vitaliy.ts/.nvm/versions/node/v12.13.0/bin/node]"
    },
    {
      "pc": "0x00000001002f8857",
      "symbol": "v8::internal::Heap::PerformGarbageCollection(v8::internal::GarbageCollector, v8::GCCallbackFlags) [/Users/vitaliy.ts/.nvm/versions/node/v12.13.0/bin/node]"
    },
    {
      "pc": "0x00000001002f683d",
      "symbol": "v8::internal::Heap::CollectGarbage(v8::internal::AllocationSpace, v8::internal::GarbageCollectionReason, v8::GCCallbackFlags) [/Users/vitaliy.ts/.nvm/versions/node/v12.13.0/bin/node]"
    },
    {
      "pc": "0x0000000100301f54",
      "symbol": "v8::internal::Heap::AllocateRawWithLightRetry(int, v8::internal::AllocationType, v8::internal::AllocationAlignment) [/Users/vitaliy.ts/.nvm/versions/node/v12.13.0/bin/node]"
    },
    {
      "pc": "0x0000000100301fcf",
      "symbol": "v8::internal::Heap::AllocateRawWithRetryOrFail(int, v8::internal::AllocationType, v8::internal::AllocationAlignment) [/Users/vitaliy.ts/.nvm/versions/node/v12.13.0/bin/node]"
    },
    {
      "pc": "0x00000001002cebc7",
      "symbol": "v8::internal::Factory::NewFillerObject(int, bool, v8::internal::AllocationType) [/Users/vitaliy.ts/.nvm/versions/node/v12.13.0/bin/node]"
    },
    {
      "pc": "0x00000001005f7725",
      "symbol": "v8::internal::Runtime_AllocateInYoungGeneration(int, unsigned long*, v8::internal::Isolate*) [/Users/vitaliy.ts/.nvm/versions/node/v12.13.0/bin/node]"
    },
    {
      "pc": "0x000000010092fbd9",
      "symbol": "Builtins_CEntry_Return1_DontSaveFPRegs_ArgvOnStack_NoBuiltinExit [/Users/vitaliy.ts/.nvm/versions/node/v12.13.0/bin/node]"
    },
    {
      "pc": "0x00000001008af9e3",
      "symbol": "Builtins_StringSubstring [/Users/vitaliy.ts/.nvm/versions/node/v12.13.0/bin/node]"
    }
  ],
  "javascriptHeap": {
    "totalMemory": 2154680320,
    "totalCommittedMemory": 2147927320,
    "usedMemory": 2142364488,
    "availableMemory": 58040344,
    "memoryLimit": 2197815296,
    "heapSpaces": {
      "read_only_space": {
        "memorySize": 262144,
        "committedMemory": 32568,
        "capacity": 261872,
        "used": 32296,
        "available": 229576
      },
      "new_space": {
        "memorySize": 8388608,
        "committedMemory": 2434336,
        "capacity": 4189952,
        "used": 140752,
        "available": 4049200
      },
      "old_space": {
        "memorySize": 109686784,
        "committedMemory": 109547488,
        "capacity": 108082792,
        "used": 107866728,
        "available": 216064
      },
      "code_space": {
        "memorySize": 1212416,
        "committedMemory": 996704,
        "capacity": 921440,
        "used": 921440,
        "available": 0
      },
      "map_space": {
        "memorySize": 2625536,
        "committedMemory": 2411392,
        "capacity": 1306640,
        "used": 1306640,
        "available": 0
      },
      "large_object_space": {
        "memorySize": 2032455680,
        "committedMemory": 2032455680,
        "capacity": 2032093080,
        "used": 2032093080,
        "available": 0
      },
      "code_large_object_space": {
        "memorySize": 49152,
        "committedMemory": 49152,
        "capacity": 3552,
        "used": 3552,
        "available": 0
      },
      "new_large_object_space": {
        "memorySize": 0,
        "committedMemory": 0,
        "capacity": 10410528,
        "used": 0,
        "available": 10410528
      }
    }
  },
  "resourceUsage": {
    "userCpuSeconds": 81.536,
    "kernelCpuSeconds": 16.1766,
    "cpuConsumptionPercent": 0.398339,
    "maxRss": 3299642179584,
    "pageFaults": {
      "IORequired": 814,
      "IONotRequired": 1919971
    },
    "fsActivity": {
      "reads": 0,
      "writes": 0
    }
  },
  "libuv": [
  ],
  "environmentVariables": {
    "npm_config_save_dev": "",
    "npm_config_legacy_bundling": "",
    "npm_config_dry_run": "",
    "NVM_INC": "/Users/vitaliy.ts/.nvm/versions/node/v12.13.0/include/node",
    "npm_config_viewer": "man",
    "npm_config_only": "",
    "npm_config_commit_hooks": "true",
    "npm_config_browser": "",
    "npm_package_gitHead": "9878f587c8c71a96516dc0f4d52b158fc36d53df",
    "npm_config_also": "",
    "npm_config_sign_git_commit": "",
    "npm_config_rollback": "true",
    "TERM_PROGRAM": "vscode",
    "NODE": "/Users/vitaliy.ts/.nvm/versions/node/v12.13.0/bin/node",
    "npm_config_usage": "",
    "npm_config_audit": "true",
    "npm_package_dependencies_react_native_safe_area_context": "0.7.3",
    "npm_package_scripts_web": "expo start --web",
    "INIT_CWD": "/Users/vitaliy.ts/projects/develop/react-native/self-posts",
    "NVM_CD_FLAGS": "-q",
    "ANDROID_HOME": "/Users/vitaliy.ts/Library/Android/sdk",
    "npm_config_globalignorefile": "/Users/vitaliy.ts/.nvm/versions/node/v12.13.0/etc/npmignore",
    "TERM": "xterm-256color",
    "SHELL": "/bin/zsh",
    "npm_config_shell": "/bin/zsh",
    "npm_config_maxsockets": "50",
    "npm_config_init_author_url": "",
    "npm_package_dependencies__react_native_community_masked_view": "0.1.6",
    "npm_config_shrinkwrap": "true",
    "npm_config_parseable": "",
    "npm_config_metrics_registry": "https://registry.npmjs.org/",
    "TMPDIR": "/var/folders/3y/h9r2_nsd2_14dszq_cl8hb980000gp/T/",
    "npm_config_timing": "",
    "npm_config_init_license": "ISC",
    "npm_config_if_present": "",
    "TERM_PROGRAM_VERSION": "1.45.1",
    "npm_package_scripts_android": "expo start --android",
    "npm_config_sign_git_tag": "",
    "npm_config_init_author_email": "",
    "npm_config_cache_max": "Infinity",
    "npm_package_dependencies__react_navigation_native": "^5.5.0",
    "npm_config_preid": "",
    "npm_config_long": "",
    "npm_config_local_address": "",
    "npm_config_git_tag_version": "true",
    "npm_config_cert": "",
    "npm_config_registry": "https://registry.npmjs.org/",
    "npm_config_noproxy": "",
    "npm_config_fetch_retries": "2",
    "npm_package_private": "true",
    "npm_package_dependencies_react_dom": "~16.9.0",
    "ZSH": "/Users/vitaliy.ts/.oh-my-zsh",
    "npm_config_versions": "",
    "npm_config_message": "%s",
    "npm_config_key": "",
    "npm_package_scripts_ios": "expo start --ios",
    "NVM_DIR": "/Users/vitaliy.ts/.nvm",
    "npm_config_globalconfig": "/Users/vitaliy.ts/.nvm/versions/node/v12.13.0/etc/npmrc",
    "npm_config_prefer_online": "",
    "npm_config_logs_max": "10",
    "npm_config_always_auth": "",
    "npm_package_devDependencies__babel_core": "^7.8.6",
    "npm_package_dependencies_react_native_screens": "~2.2.0",
    "SSH_AUTH_SOCK": "/private/tmp/com.apple.launchd.twuF1oYnE2/Listeners",
    "__CF_USER_TEXT_ENCODING": "0x1F6:0x7:0x31",
    "npm_execpath": "/Users/vitaliy.ts/.nvm/versions/node/v12.13.0/lib/node_modules/npm/bin/npm-cli.js",
    "npm_config_global_style": "",
    "npm_config_cache_lock_retries": "10",
    "npm_config_update_notifier": "true",
    "npm_config_cafile": "",
    "PAGER": "less",
    "npm_config_heading": "npm",
    "npm_config_audit_level": "low",
    "LSCOLORS": "Gxfxcxdxbxegedabagacad",
    "npm_config_searchlimit": "20",
    "npm_config_read_only": "",
    "npm_config_offline": "",
    "npm_config_fetch_retry_mintimeout": "10000",
    "npm_package_dependencies_react_native": "https://github.com/expo/react-native/archive/sdk-37.0.1.tar.gz",
    "npm_config_json": "",
    "npm_config_access": "",
    "npm_config_argv": "{\"remain\":[],\"cooked\":[\"run\",\"ios\"],\"original\":[\"run\",\"ios\"]}",
    "PATH": "/Users/vitaliy.ts/.nvm/versions/node/v12.13.0/lib/node_modules/npm/node_modules/npm-lifecycle/node-gyp-bin:/Users/vitaliy.ts/projects/develop/react-native/self-posts/node_modules/.bin:/Users/vitaliy.ts/.nvm/versions/node/v12.13.0/bin:/usr/local/bin:/usr/bin:/bin:/usr/sbin:/sbin:/Library/Apple/usr/bin:/Users/vitaliy.ts/.nvm/versions/node/v12.13.0/bin:/Users/vitaliy.ts/Library/Android/sdk/platform-tools:/Users/vitaliy.ts/Library/Android/sdk/platform-tools",
    "npm_config_allow_same_version": "",
    "npm_config_https_proxy": "",
    "npm_config_engine_strict": "",
    "npm_config_description": "true",
    "_": "/Users/vitaliy.ts/projects/develop/react-native/self-posts/node_modules/.bin/expo",
    "npm_config_userconfig": "/Users/vitaliy.ts/.npmrc",
    "npm_config_init_module": "/Users/vitaliy.ts/.npm-init.js",
    "npm_config_cidr": "",
    "PWD": "/Users/vitaliy.ts/projects/develop/react-native/self-posts",
    "npm_config_user": "502",
    "npm_config_node_version": "12.13.0",
    "npm_lifecycle_event": "ios",
    "npm_package_dependencies_expo_font": "^8.1.1",
    "npm_config_save": "true",
    "npm_config_ignore_prepublish": "",
    "npm_config_editor": "vi",
    "npm_config_auth_type": "legacy",
    "npm_package_name": "",
    "LANG": "ru_RU.UTF-8",
    "npm_config_tag": "latest",
    "npm_config_script_shell": "",
    "npm_config_progress": "true",
    "npm_config_global": "",
    "npm_config_before": "",
    "npm_package_scripts_start": "expo start",
    "npm_config_searchstaleness": "900",
    "npm_config_optional": "true",
    "npm_config_ham_it_up": "",
    "npm_package_dependencies_react_native_reanimated": "~1.7.0",
    "XPC_FLAGS": "0x0",
    "npm_config_save_prod": "",
    "npm_config_force": "",
    "npm_config_bin_links": "true",
    "npm_config_searchopts": "",
    "npm_config_node_gyp": "/Users/vitaliy.ts/.nvm/versions/node/v12.13.0/lib/node_modules/npm/node_modules/node-gyp/bin/node-gyp.js",
    "npm_config_depth": "Infinity",
    "npm_package_main": "node_modules/expo/AppEntry.js",
    "npm_config_sso_poll_frequency": "500",
    "npm_config_rebuild_bundle": "true",
    "npm_package_version": "",
    "XPC_SERVICE_NAME": "0",
    "npm_config_unicode": "true",
    "SHLVL": "2",
    "HOME": "/Users/vitaliy.ts",
    "npm_config_fetch_retry_maxtimeout": "60000",
    "VSCODE_GIT_ASKPASS_MAIN": "/Applications/Visual Studio Code.app/Contents/Resources/app/extensions/git/dist/askpass-main.js",
    "npm_config_tag_version_prefix": "v",
    "npm_config_strict_ssl": "true",
    "npm_config_sso_type": "oauth",
    "npm_config_scripts_prepend_node_path": "warn-only",
    "npm_config_save_prefix": "^",
    "npm_config_loglevel": "notice",
    "npm_config_ca": "",
    "npm_config_save_exact": "",
    "npm_config_group": "20",
    "npm_config_fetch_retry_factor": "10",
    "npm_config_dev": "",
    "npm_config_version": "",
    "npm_config_prefer_offline": "",
    "npm_config_cache_lock_stale": "60000",
    "npm_config_otp": "",
    "npm_config_cache_min": "10",
    "npm_config_searchexclude": "",
    "npm_config_cache": "/Users/vitaliy.ts/.npm",
    "npm_package_dependencies__react_navigation_stack": "^5.4.1",
    "LESS": "-R",
    "LOGNAME": "vitaliy.ts",
    "npm_lifecycle_script": "expo start --ios",
    "npm_config_color": "true",
    "npm_config_proxy": "",
    "npm_config_package_lock": "true",
    "npm_package_devDependencies_babel_preset_expo": "~8.1.0",
    "VSCODE_GIT_IPC_HANDLE": "/var/folders/3y/h9r2_nsd2_14dszq_cl8hb980000gp/T/vscode-git-48992a11f3.sock",
    "npm_config_package_lock_only": "",
    "npm_config_fund": "true",
    "npm_package_dependencies_react": "~16.9.0",
    "npm_config_save_optional": "",
    "npm_package_dependencies_react_native_web": "~0.11.7",
    "NVM_BIN": "/Users/vitaliy.ts/.nvm/versions/node/v12.13.0/bin",
    "npm_config_ignore_scripts": "",
    "npm_config_user_agent": "npm/6.14.5 node/v12.13.0 darwin x64",
    "npm_config_cache_lock_wait": "10000",
    "npm_package_dependencies_react_native_gesture_handler": "~1.6.0",
    "npm_package_dependencies_expo": "~37.0.3",
    "VSCODE_GIT_ASKPASS_NODE": "/Applications/Visual Studio Code.app/Contents/Frameworks/Code Helper (Renderer).app/Contents/MacOS/Code Helper (Renderer)",
    "GIT_ASKPASS": "/Applications/Visual Studio Code.app/Contents/Resources/app/extensions/git/dist/askpass.sh",
    "npm_config_production": "",
    "npm_config_send_metrics": "",
    "npm_config_save_bundle": "",
    "npm_config_umask": "0022",
    "npm_config_node_options": "",
    "npm_config_init_version": "1.0.0",
    "npm_config_init_author_name": "",
    "npm_config_git": "git",
    "npm_config_scope": "",
    "npm_package_scripts_eject": "expo eject",
    "npm_config_unsafe_perm": "true",
    "npm_config_tmp": "/var/folders/3y/h9r2_nsd2_14dszq_cl8hb980000gp/T",
    "npm_config_onload_script": "",
    "npm_node_execpath": "/Users/vitaliy.ts/.nvm/versions/node/v12.13.0/bin/node",
    "npm_config_prefix": "/Users/vitaliy.ts/.nvm/versions/node/v12.13.0",
    "npm_config_link": "",
    "npm_config_format_package_lock": "true",
    "COLORTERM": "truecolor",
    "REACT_NATIVE_APP_ROOT": "/Users/vitaliy.ts/projects/develop/react-native/self-posts",
    "ELECTRON_RUN_AS_NODE": "1"
  },
  "userLimits": {
    "core_file_size_blocks": {
      "soft": 0,
      "hard": "unlimited"
    },
    "data_seg_size_kbytes": {
      "soft": "unlimited",
      "hard": "unlimited"
    },
    "file_size_blocks": {
      "soft": "unlimited",
      "hard": "unlimited"
    },
    "max_locked_memory_bytes": {
      "soft": "unlimited",
      "hard": "unlimited"
    },
    "max_memory_size_kbytes": {
      "soft": "unlimited",
      "hard": "unlimited"
    },
    "open_files": {
      "soft": 24576,
      "hard": "unlimited"
    },
    "stack_size_bytes": {
      "soft": 8388608,
      "hard": 67104768
    },
    "cpu_time_seconds": {
      "soft": "unlimited",
      "hard": "unlimited"
    },
    "max_user_processes": {
      "soft": 2784,
      "hard": 4176
    },
    "virtual_memory_kbytes": {
      "soft": "unlimited",
      "hard": "unlimited"
    }
  },
  "sharedObjects": [
    "/Users/vitaliy.ts/.nvm/versions/node/v12.13.0/bin/node",
    "/System/Library/Frameworks/CoreFoundation.framework/Versions/A/CoreFoundation",
    "/usr/lib/libSystem.B.dylib",
    "/usr/lib/libc++.1.dylib",
    "/usr/lib/libobjc.A.dylib",
    "/usr/lib/libfakelink.dylib",
    "/usr/lib/libDiagnosticMessagesClient.dylib",
    "/usr/lib/libicucore.A.dylib",
    "/usr/lib/libz.1.dylib",
    "/usr/lib/libc++abi.dylib",
    "/usr/lib/system/libcache.dylib",
    "/usr/lib/system/libcommonCrypto.dylib",
    "/usr/lib/system/libcompiler_rt.dylib",
    "/usr/lib/system/libcopyfile.dylib",
    "/usr/lib/system/libcorecrypto.dylib",
    "/usr/lib/system/libdispatch.dylib",
    "/usr/lib/system/libdyld.dylib",
    "/usr/lib/system/libkeymgr.dylib",
    "/usr/lib/system/liblaunch.dylib",
    "/usr/lib/system/libmacho.dylib",
    "/usr/lib/system/libquarantine.dylib",
    "/usr/lib/system/libremovefile.dylib",
    "/usr/lib/system/libsystem_asl.dylib",
    "/usr/lib/system/libsystem_blocks.dylib",
    "/usr/lib/system/libsystem_c.dylib",
    "/usr/lib/system/libsystem_configuration.dylib",
    "/usr/lib/system/libsystem_coreservices.dylib",
    "/usr/lib/system/libsystem_darwin.dylib",
    "/usr/lib/system/libsystem_dnssd.dylib",
    "/usr/lib/system/libsystem_featureflags.dylib",
    "/usr/lib/system/libsystem_info.dylib",
    "/usr/lib/system/libsystem_m.dylib",
    "/usr/lib/system/libsystem_malloc.dylib",
    "/usr/lib/system/libsystem_networkextension.dylib",
    "/usr/lib/system/libsystem_notify.dylib",
    "/usr/lib/system/libsystem_sandbox.dylib",
    "/usr/lib/system/libsystem_secinit.dylib",
    "/usr/lib/system/libsystem_kernel.dylib",
    "/usr/lib/system/libsystem_platform.dylib",
    "/usr/lib/system/libsystem_pthread.dylib",
    "/usr/lib/system/libsystem_symptoms.dylib",
    "/usr/lib/system/libsystem_trace.dylib",
    "/usr/lib/system/libunwind.dylib",
    "/usr/lib/system/libxpc.dylib",
    "/System/Library/CoreServices/Encodings/libCyrillicConverter.dylib",
    "/Users/vitaliy.ts/projects/develop/react-native/self-posts/node_modules/fsevents/build/Release/fse.node",
    "/System/Library/Frameworks/CoreServices.framework/Versions/A/CoreServices",
    "/System/Library/Frameworks/CFNetwork.framework/Versions/A/CFNetwork",
    "/System/Library/Frameworks/CoreServices.framework/Versions/A/Frameworks/FSEvents.framework/Versions/A/FSEvents",
    "/System/Library/Frameworks/CoreServices.framework/Versions/A/Frameworks/CarbonCore.framework/Versions/A/CarbonCore",
    "/System/Library/Frameworks/CoreServices.framework/Versions/A/Frameworks/Metadata.framework/Versions/A/Metadata",
    "/System/Library/Frameworks/CoreServices.framework/Versions/A/Frameworks/OSServices.framework/Versions/A/OSServices",
    "/System/Library/Frameworks/CoreServices.framework/Versions/A/Frameworks/SearchKit.framework/Versions/A/SearchKit",
    "/System/Library/Frameworks/CoreServices.framework/Versions/A/Frameworks/AE.framework/Versions/A/AE",
    "/System/Library/Frameworks/CoreServices.framework/Versions/A/Frameworks/LaunchServices.framework/Versions/A/LaunchServices",
    "/System/Library/Frameworks/CoreServices.framework/Versions/A/Frameworks/DictionaryServices.framework/Versions/A/DictionaryServices",
    "/System/Library/Frameworks/CoreServices.framework/Versions/A/Frameworks/SharedFileList.framework/Versions/A/SharedFileList",
    "/System/Library/Frameworks/Foundation.framework/Versions/C/Foundation",
    "/System/Library/Frameworks/IOKit.framework/Versions/A/IOKit",
    "/System/Library/Frameworks/SystemConfiguration.framework/Versions/A/SystemConfiguration",
    "/System/Library/Frameworks/Security.framework/Versions/A/Security",
    "/usr/lib/libsqlite3.dylib",
    "/usr/lib/libxml2.2.dylib",
    "/usr/lib/libnetwork.dylib",
    "/usr/lib/libapple_nghttp2.dylib",
    "/usr/lib/libauto.dylib",
    "/usr/lib/libcompression.dylib",
    "/System/Library/Frameworks/DiskArbitration.framework/Versions/A/DiskArbitration",
    "/usr/lib/libarchive.2.dylib",
    "/usr/lib/liblangid.dylib",
    "/usr/lib/libCRFSuite.dylib",
    "/usr/lib/liblzma.5.dylib",
    "/usr/lib/libenergytrace.dylib",
    "/usr/lib/libbsm.0.dylib",
    "/usr/lib/system/libkxld.dylib",
    "/System/Library/PrivateFrameworks/AppleFSCompression.framework/Versions/A/AppleFSCompression",
    "/usr/lib/libcoretls.dylib",
    "/usr/lib/libcoretls_cfhelpers.dylib",
    "/usr/lib/libpam.2.dylib",
    "/usr/lib/libxar.1.dylib",
    "/usr/lib/libbz2.1.0.dylib",
    "/usr/lib/libiconv.2.dylib",
    "/usr/lib/libcharset.1.dylib",
    "/usr/lib/libpcap.A.dylib",
    "/System/Library/Frameworks/NetFS.framework/Versions/A/NetFS",
    "/System/Library/PrivateFrameworks/NetAuth.framework/Versions/A/NetAuth",
    "/System/Library/PrivateFrameworks/login.framework/Versions/A/Frameworks/loginsupport.framework/Versions/A/loginsupport",
    "/System/Library/PrivateFrameworks/TCC.framework/Versions/A/TCC",
    "/System/Library/PrivateFrameworks/CoreNLP.framework/Versions/A/CoreNLP",
    "/System/Library/PrivateFrameworks/MetadataUtilities.framework/Versions/A/MetadataUtilities",
    "/usr/lib/libmecabra.dylib",
    "/System/Library/Frameworks/Accelerate.framework/Versions/A/Accelerate",
    "/usr/lib/libmecab.dylib",
    "/usr/lib/libgermantok.dylib",
    "/usr/lib/libThaiTokenizer.dylib",
    "/usr/lib/libChineseTokenizer.dylib",
    "/System/Library/Frameworks/Accelerate.framework/Versions/A/Frameworks/vImage.framework/Versions/A/vImage",
    "/System/Library/Frameworks/Accelerate.framework/Versions/A/Frameworks/vecLib.framework/Versions/A/vecLib",
    "/System/Library/Frameworks/Accelerate.framework/Versions/A/Frameworks/vecLib.framework/Versions/A/libvMisc.dylib",
    "/System/Library/Frameworks/Accelerate.framework/Versions/A/Frameworks/vecLib.framework/Versions/A/libvDSP.dylib",
    "/System/Library/Frameworks/Accelerate.framework/Versions/A/Frameworks/vecLib.framework/Versions/A/libBLAS.dylib",
    "/System/Library/Frameworks/Accelerate.framework/Versions/A/Frameworks/vecLib.framework/Versions/A/libLAPACK.dylib",
    "/System/Library/Frameworks/Accelerate.framework/Versions/A/Frameworks/vecLib.framework/Versions/A/libLinearAlgebra.dylib",
    "/System/Library/Frameworks/Accelerate.framework/Versions/A/Frameworks/vecLib.framework/Versions/A/libSparseBLAS.dylib",
    "/System/Library/Frameworks/Accelerate.framework/Versions/A/Frameworks/vecLib.framework/Versions/A/libQuadrature.dylib",
    "/System/Library/Frameworks/Accelerate.framework/Versions/A/Frameworks/vecLib.framework/Versions/A/libBNNS.dylib",
    "/System/Library/Frameworks/Accelerate.framework/Versions/A/Frameworks/vecLib.framework/Versions/A/libSparse.dylib",
    "/System/Library/PrivateFrameworks/LanguageModeling.framework/Versions/A/LanguageModeling",
    "/System/Library/PrivateFrameworks/CoreEmoji.framework/Versions/A/CoreEmoji",
    "/System/Library/PrivateFrameworks/LinguisticData.framework/Versions/A/LinguisticData",
    "/System/Library/PrivateFrameworks/Lexicon.framework/Versions/A/Lexicon",
    "/usr/lib/libcmph.dylib",
    "/System/Library/Frameworks/OpenDirectory.framework/Versions/A/Frameworks/CFOpenDirectory.framework/Versions/A/CFOpenDirectory",
    "/System/Library/Frameworks/OpenDirectory.framework/Versions/A/OpenDirectory",
    "/System/Library/PrivateFrameworks/APFS.framework/Versions/A/APFS",
    "/System/Library/Frameworks/SecurityFoundation.framework/Versions/A/SecurityFoundation",
    "/usr/lib/libutil.dylib",
    "/System/Library/PrivateFrameworks/CoreServicesStore.framework/Versions/A/CoreServicesStore",
    "/System/Library/Frameworks/ServiceManagement.framework/Versions/A/ServiceManagement",
    "/System/Library/PrivateFrameworks/BackgroundTaskManagement.framework/Versions/A/BackgroundTaskManagement",
    "/usr/lib/libxslt.1.dylib",
    "/usr/lib/libusrtcp.dylib"
  ]
}